MO uart_transmitter NULL uart.v vlg08/uart__transmitter.bin 1548266294
MO i2c_init NULL i2c_init.v vlg29/i2c__init.bin 1548266294
MO i2c_master NULL i2c_master.v vlg65/i2c__master.bin 1548266294
MO vga NULL vga.v vlg6A/vga.bin 1548266294
MO top NULL top.v vlg6F/top.bin 1548266294
MO uart_test NULL uart_test.v vlg0B/uart__test.bin 1548266294
MO uart NULL uart.v vlg48/uart.bin 1548198022
MO uart_receiver NULL uart_receiver.v vlg48/uart__receiver.bin 1548266294
MO uart_rx NULL uart_rx.v vlg21/uart__rx.bin 1548189967
